{
  "defaultSeverity": "warning",
  "extends": [
    "tslint:recommended"
  ],
  "rules": {
    "quotemark": [true, "single"],
    "indent": [true, "spaces", 2],
    "interface-name": false,
    "ordered-imports": false,
    "one-variable-per-declaration": false,
    "object-literal-sort-keys": false,
    "no-consecutive-blank-lines": false,
    "no-console": false,
    "no-empty": false
  }
}
